SurveyBot3000 exclusions related to data quality
…
## [1] 33

sum(sb_mahal$mahal_flagged)

## [1] 98

2.4 psychometric
synonym

.22 instead of .6 as cut off

cors <- psychsyn_critval(sb_main %>% select(starts_with(main_qs)))
cors

## # A tibble: 47,961 × 3
##    var1    var2      cor
##    <fct>   <fct>   <dbl>
##  1 CESD_18 CESD_06 0.838
##  2 CESD_16 CESD_12 0.813
##  3 PTQ_06  PTQ_01  0.797
##  4 CESD_06 CESD_03 0.792
##  5 PTQ_11  PTQ_01  0.789
##  6 ULS8_05 ULS8_04 0.786
##  7 PTQ_13  PTQ_08  0.776
##  8 PTQ_11  PTQ_03  0.772
##  9 CESD_09 CESD_06 0.770
## 10 PTQ_11  PTQ_08  0.769
## # ℹ 47,951 more rows
…
## [1] 12

two NAs (probably those with extreme longstring and so no within
person variance)

2.5 psychometric
antonyms

-.03 instead of -.4 as cut off

cors <- psychsyn_critval(sb_main %>% select(starts_with(main_qs)), anto = TRUE)
cors

## # A tibble: 47,961 × 3
##    var1    var2       cor
##    <fct>   <fct>    <dbl>
##  1 RAAS_05 RAAS_02 -0.645
##  2 CESD_16 CESD_06 -0.632
##  3 CESD_18 CESD_12 -0.627
##  4 RAAS_14 RAAS_07 -0.622
##  5 CESD_12 CESD_06 -0.621
##  6 CESD_12 CESD_09 -0.619
##  7 CESD_16 CESD_09 -0.619
##  8 CESD_18 CESD_16 -0.610
##  9 CESD_12 CESD_03 -0.595
## 10 CESD_16 CESD_03 -0.582
## # ℹ 47,951 more rows
…
